…
    ## [1] "extdata/specimens.xlsx"

The
[`herbarium_specimens.R`](https://github.com/jasonratcliff/thesis/blob/master/data-raw/specimens/herbarium_specimens.R)
script creates an *.Rda* from `specimens.xlsx`, formatting specimen data
for downstream phylogenetic, distribution, and morphological analyses to
define a tibble `herbarium_specimens` in the `thesis` namespace.

``` r
thesis::herbarium_specimens
```

    ## # A tibble: 1,727 × 66
    ##    excel_sheet   prior_id      prior_1 prior_2 prior_3
    ##    <chr>         <chr>         <chr>   <chr>   <chr>  
    ##  1 P. acutifolia Physaria did… Physar… Physar… <NA>   
    ##  2 P. acutifolia Physaria acu… Physar… Physar… <NA>   
    ##  3 P. acutifolia Physaria did… Physar… <NA>    <NA>   
    ##  4 P. acutifolia Physaria acu… Physar… Physar… <NA>   
    ##  5 P. acutifolia Physaria did… Physar… <NA>    <NA>   
    ##  6 P. acutifolia Physaria acu… Physar… <NA>    <NA>   
    ##  7 P. acutifolia Physaria acu… Physar… Physar… <NA>   
    ##  8 P. acutifolia Physaria acu… Physar… Physar… Physar…
    ##  9 P. acutifolia Physaria did… Physar… Physar… <NA>   
    ## 10 P. acutifolia Physaria bra… Physar… Physar… <NA>   
    ## # … with 1,717 more rows, and 61 more variables:
    ## #   prior_4 <chr>, Taxon <chr>,
    ## #   Taxon_a_posteriori <chr>, Collector <chr>,
    ## #   Collection_Number <chr>, Date <chr>,
    ## #   Date_parsed <date>, Date_md <date>,
    ## #   Herbarium <chr>, State <chr>, County <chr>,
    ## #   Location <chr>, Longitude <dbl>, …
…
